{
  "db": {
    "host": "db",
    "port": "27017",
    "name": "app",
    "password": "password",
    "user": "user"
  },
  "auth": {
    "secret": "secret",
    "accessCookie": "access-token",
    "refreshCookie": "refresh-token",
    "accessExp": "15",
    "refreshExp": "31"
  }
}